{"pagination": {"count": 4, "next": "http://localhost:8000/api/courses/v1/courses/?page=2&page_size=1", "num_pages": 4, "previous": null}, "results": [{"start_type": "timestamp", "end": null, "name": "Drag and Drop v2.1", "start": "2016-01-01T00:00:00Z", "media": {"image": {"small": "http://localhost:8000/asset-v1:OpenCraft+DnDv2101x+2016+type@asset+block@images_course_image.jpg", "raw": "http://localhost:8000/asset-v1:OpenCraft+DnDv2101x+2016+type@asset+block@images_course_image.jpg", "large": "http://localhost:8000/asset-v1:OpenCraft+DnDv2101x+2016+type@asset+block@images_course_image.jpg"}, "course_video": {"uri": null}, "course_image": {"uri": "/asset-v1:OpenCraft+DnDv2101x+2016+type@asset+block@images_course_image.jpg"}}, "enrollment_start": null, "pacing": "instructor", "number": "DnDv2101x", "short_description": "", "start_display": "Jan. 1, 2016", "enrollment_end": null, "org": "OpenCraft", "course_id": "course-v1:OpenCraft+DnDv2101x+2016", "effort": null, "id": "course-v1:OpenCraft+DnDv2101x+2016", "blocks_url": "http://localhost:8000/api/courses/v1/blocks/?course_id=course-v1%3AOpenCraft%2BDnDv2101x%2B2016"}]}
